Взаимосвязи в компании: отчет
…
Ну нет, так нет. Посмотрим, какие должности занимают сотрудники с
самой высокой битвинностью.

## # A tibble: 32 × 2
##    Note                                                  m
##    <chr>                                             <dbl>
##  1 CEO, Enron North America and Enron Enery Services 1871.
##  2 Vice President, Enron WholeSale Services          1186.
##  3 Employee, Government Relation Executive            948.
##  4 Managing Director, Legal Department                759.
##  5 CEO, Enron America                                 685.
##  6 Manager                                            530.
##  7 President, Enron Global Mkts                       425.
##  8 Vice President, Vice President & Chief of Staff    389.
##  9 Vice President, Regulatory Affairs                 262.
## 10 Vice President, Government Affairs                 184.
## # … with 22 more rows
…
